{
    "name": "acf/list-text",
    "title": "List Text",
    "description": "List Text",
    "category": "theme",
    "icon": "admin-comments",
    "apiVersion": 2,
    "keywords": [
        "menu",
        "contact"
    ],
    "acf": {
        "mode": "preview",
        "renderTemplate": "render.php"
    },
    "styles": [
        { "name": "default", "label": "Default", "isDefault": true },
        { "name": "fluid", "label": "Fluid"},
        { "name": "narrow", "label": "Narrow" }
    ],
    "supports": {
        "anchor": true,
        "color": {
            "text": true,
            "background": true
        },
        "alignText": true,
        "spacing": {
            "margin": [
                "top",
                "bottom"
            ],
            "padding": true
        },
        "typography": {
            "lineHeight": true,
            "fontSize": true
        },
        "fullHeight": true
    }
}