<svg xmlns="http://www.w3.org/2000/svg" width="251.743" height="243.672" viewBox="0 0 251.743 243.672">
  <g id="Shape" transform="translate(-1100.5 -386.5)">
    <path id="Union_11" data-name="Union 11" d="M1388-2413h250l-25,24H1412v195l-24,23Z" transform="translate(-287 2800)" fill="#c81927" stroke="rgba(0,0,0,0)" stroke-width="1"/>
  </g>
</svg>
