<svg xmlns="http://www.w3.org/2000/svg" xmlns:xlink="http://www.w3.org/1999/xlink" width="1920" height="85" viewBox="0 0 1920 85">
  <defs>
    <clipPath id="clip-path">
      <rect id="Rectangle_148789" data-name="Rectangle 148789" width="1920" height="85" fill="#fff"/>
    </clipPath>
    <clipPath id="clip-path-2">
      <rect id="Rectangle_148788" data-name="Rectangle 148788" width="1935.619" height="620.391" fill="rgba(0,0,0,0)"/>
    </clipPath>
    <clipPath id="clip-path-3">
      <rect id="Rectangle_148749" data-name="Rectangle 148749" width="1206.901" height="1206.904" fill="rgba(0,0,0,0)"/>
    </clipPath>
    <clipPath id="clip-path-4">
      <path id="Path_87035" data-name="Path 87035" d="M171.706,0l1206.9,1206.9c-22.427-170.742-203.8-456.783-476.96-729.941S342.448,22.431,171.706,0" transform="translate(-171.706)" fill="rgba(0,0,0,0)"/>
    </clipPath>
    <radialGradient id="radial-gradient" cx="0.437" cy="0.5" r="0.168" gradientUnits="objectBoundingBox">
      <stop offset="0" stop-color="#8a8a8a"/>
      <stop offset="0.012" stop-color="#8b8b8b"/>
      <stop offset="0.336" stop-color="#bdbdbd"/>
      <stop offset="0.62" stop-color="#e1e1e1"/>
      <stop offset="0.851" stop-color="#f7f7f7"/>
      <stop offset="1" stop-color="#fff"/>
    </radialGradient>
    <clipPath id="clip-path-5">
      <rect id="Rectangle_148751" data-name="Rectangle 148751" width="451.858" height="451.858" fill="rgba(0,0,0,0)"/>
    </clipPath>
    <clipPath id="clip-path-6">
      <path id="Path_87036" data-name="Path 87036" d="M15.322,106.157,467.18,558.015c-8.4-63.924-76.3-171.018-178.573-273.285S79.246,114.553,15.322,106.157" transform="translate(-15.322 -106.157)" fill="rgba(0,0,0,0)"/>
    </clipPath>
    <clipPath id="clip-path-7">
      <rect id="Rectangle_148753" data-name="Rectangle 148753" width="1007.263" height="1007.266" fill="rgba(0,0,0,0)"/>
    </clipPath>
    <clipPath id="clip-path-8">
      <path id="Path_87037" data-name="Path 87037" d="M115.7,28.6,1122.967,1035.87c-18.719-142.5-170.09-381.227-398.063-609.2S258.2,47.323,115.7,28.6" transform="translate(-115.704 -28.604)" fill="rgba(0,0,0,0)"/>
    </clipPath>
    <clipPath id="clip-path-9">
      <rect id="Rectangle_148755" data-name="Rectangle 148755" width="661.485" height="661.484" fill="rgba(0,0,0,0)"/>
    </clipPath>
    <clipPath id="clip-path-10">
      <path id="Path_87038" data-name="Path 87038" d="M211,146.869,872.488,808.353C860.194,714.771,760.786,558,611.072,408.284S304.582,159.163,211,146.869" transform="translate(-211.003 -146.869)" fill="rgba(0,0,0,0)"/>
    </clipPath>
    <clipPath id="clip-path-11">
      <rect id="Rectangle_148757" data-name="Rectangle 148757" width="1151.069" height="1151.069" fill="rgba(0,0,0,0)"/>
    </clipPath>
    <clipPath id="clip-path-12">
      <path id="Path_87039" data-name="Path 87039" d="M33.778,60.754,1184.847,1211.823c-21.39-162.842-194.375-435.652-454.9-696.171S196.62,82.147,33.778,60.754" transform="translate(-33.778 -60.754)" fill="rgba(0,0,0,0)"/>
    </clipPath>
    <clipPath id="clip-path-13">
      <rect id="Rectangle_148759" data-name="Rectangle 148759" width="554.24" height="554.24" fill="rgba(0,0,0,0)"/>
    </clipPath>
    <clipPath id="clip-path-14">
      <path id="Path_87040" data-name="Path 87040" d="M320.649,159.562,874.889,713.8c-10.3-78.407-93.593-209.768-219.032-335.207s-256.8-208.734-335.208-219.032" transform="translate(-320.649 -159.562)" fill="rgba(0,0,0,0)"/>
    </clipPath>
    <clipPath id="clip-path-15">
      <rect id="Rectangle_148761" data-name="Rectangle 148761" width="1055.274" height="1055.277" fill="rgba(0,0,0,0)"/>
    </clipPath>
    <clipPath id="clip-path-16">
      <path id="Path_87041" data-name="Path 87041" d="M288.9,23.851,1344.175,1079.128c-19.611-149.29-178.2-399.4-417.04-638.237S438.191,43.462,288.9,23.851" transform="translate(-288.901 -23.851)" fill="rgba(0,0,0,0)"/>
    </clipPath>
    <clipPath id="clip-path-17">
      <rect id="Rectangle_148763" data-name="Rectangle 148763" width="869.471" height="869.47" fill="rgba(0,0,0,0)"/>
    </clipPath>
    <clipPath id="clip-path-18">
      <path id="Path_87042" data-name="Path 87042" d="M399.218,56.643l869.471,869.47c-16.158-123.006-146.822-329.076-343.61-525.864S522.224,72.8,399.218,56.643" transform="translate(-399.218 -56.643)" fill="rgba(0,0,0,0)"/>
    </clipPath>
    <clipPath id="clip-path-19">
      <rect id="Rectangle_148765" data-name="Rectangle 148765" width="307.561" height="307.562" fill="rgba(0,0,0,0)"/>
    </clipPath>
    <clipPath id="clip-path-20">
      <path id="Path_87043" data-name="Path 87043" d="M58.093,186.437,365.655,494c-5.714-43.51-51.937-116.406-121.545-186.014S101.607,192.152,58.093,186.437" transform="translate(-58.093 -186.437)" fill="rgba(0,0,0,0)"/>
    </clipPath>
    <clipPath id="clip-path-21">
      <rect id="Rectangle_148767" data-name="Rectangle 148767" width="1165.852" height="1165.853" fill="rgba(0,0,0,0)"/>
    </clipPath>
    <clipPath id="clip-path-22">
      <path id="Path_87044" data-name="Path 87044" d="M167.823,151.178,1333.675,1317.03C1312.009,1152.1,1136.8,875.784,872.938,611.918S332.757,172.843,167.823,151.178" transform="translate(-167.823 -151.178)" fill="rgba(0,0,0,0)"/>
    </clipPath>
    <clipPath id="clip-path-23">
      <rect id="Rectangle_148769" data-name="Rectangle 148769" width="742.139" height="742.141" fill="rgba(0,0,0,0)"/>
    </clipPath>
    <clipPath id="clip-path-24">
      <path id="Path_87045" data-name="Path 87045" d="M498.422,219.115l742.139,742.142c-13.79-104.994-125.322-280.885-293.29-448.853S603.413,232.9,498.422,219.115" transform="translate(-498.422 -219.115)" fill="rgba(0,0,0,0)"/>
    </clipPath>
    <clipPath id="clip-path-25">
      <rect id="Rectangle_148771" data-name="Rectangle 148771" width="1143.935" height="1143.933" fill="rgba(0,0,0,0)"/>
    </clipPath>
    <clipPath id="clip-path-26">
      <path id="Path_87046" data-name="Path 87046" d="M428.628,86.635,1572.563,1230.566c-21.259-161.832-193.172-432.95-452.075-691.856S590.464,107.89,428.628,86.635" transform="translate(-428.628 -86.635)" fill="rgba(0,0,0,0)"/>
    </clipPath>
    <clipPath id="clip-path-27">
      <rect id="Rectangle_148773" data-name="Rectangle 148773" width="1089.985" height="1089.982" fill="rgba(0,0,0,0)"/>
    </clipPath>
    <clipPath id="clip-path-28">
      <path id="Path_87047" data-name="Path 87047" d="M343.326,99.32,1433.311,1189.3c-20.255-154.2-184.063-412.536-430.758-659.227S497.528,119.572,343.326,99.32" transform="translate(-343.326 -99.32)" fill="rgba(0,0,0,0)"/>
    </clipPath>
    <clipPath id="clip-path-29">
      <rect id="Rectangle_148775" data-name="Rectangle 148775" width="1206.005" height="1206.005" fill="rgba(0,0,0,0)"/>
    </clipPath>
    <clipPath id="clip-path-30">
      <path id="Path_87048" data-name="Path 87048" d="M260.532,145.911l1206,1206c-22.41-170.614-203.65-456.446-476.6-729.4s-558.786-454.195-729.4-476.6" transform="translate(-260.532 -145.911)" fill="rgba(0,0,0,0)"/>
    </clipPath>
    <clipPath id="clip-path-31">
      <rect id="Rectangle_148777" data-name="Rectangle 148777" width="468.733" height="468.733" fill="rgba(0,0,0,0)"/>
    </clipPath>
    <clipPath id="clip-path-32">
      <path id="Path_87049" data-name="Path 87049" d="M155.108,269.873,623.841,738.606c-8.71-66.313-79.151-177.4-185.238-283.491S221.421,278.586,155.108,269.873" transform="translate(-155.108 -269.873)" fill="rgba(0,0,0,0)"/>
    </clipPath>
    <clipPath id="clip-path-33">
      <rect id="Rectangle_148779" data-name="Rectangle 148779" width="331.354" height="331.354" fill="rgba(0,0,0,0)"/>
    </clipPath>
    <clipPath id="clip-path-34">
      <path id="Path_87050" data-name="Path 87050" d="M485.832,278.327,817.186,609.681c-6.156-46.877-55.952-125.412-130.947-200.407S532.709,284.483,485.832,278.327" transform="translate(-485.832 -278.327)" fill="rgba(0,0,0,0)"/>
    </clipPath>
    <clipPath id="clip-path-35">
      <rect id="Rectangle_148781" data-name="Rectangle 148781" width="340.451" height="340.453" fill="rgba(0,0,0,0)"/>
    </clipPath>
    <clipPath id="clip-path-36">
      <path id="Path_87051" data-name="Path 87051" d="M60.563,264.013l340.45,340.453c-6.325-48.163-57.49-128.855-134.546-205.908S108.726,270.341,60.563,264.013" transform="translate(-60.563 -264.013)" fill="rgba(0,0,0,0)"/>
    </clipPath>
    <clipPath id="clip-path-37">
      <rect id="Rectangle_148783" data-name="Rectangle 148783" width="781.734" height="781.733" fill="rgba(0,0,0,0)"/>
    </clipPath>
    <clipPath id="clip-path-38">
      <path id="Path_87052" data-name="Path 87052" d="M486.7,64.548l781.734,781.733c-14.528-110.591-132.009-295.868-308.937-472.8S597.291,79.076,486.7,64.548" transform="translate(-486.7 -64.548)" fill="rgba(0,0,0,0)"/>
    </clipPath>
    <clipPath id="clip-path-39">
      <rect id="Rectangle_148785" data-name="Rectangle 148785" width="406.435" height="406.439" fill="rgba(0,0,0,0)"/>
    </clipPath>
    <clipPath id="clip-path-40">
      <path id="Path_87053" data-name="Path 87053" d="M176.071,225.051,582.506,631.49c-7.552-57.5-68.632-153.829-160.623-245.816S233.571,232.606,176.071,225.051" transform="translate(-176.071 -225.051)" fill="rgba(0,0,0,0)"/>
    </clipPath>
    <clipPath id="clip-path-41">
      <rect id="Rectangle_148787" data-name="Rectangle 148787" width="1157.914" height="1157.918" fill="rgba(0,0,0,0)"/>
    </clipPath>
    <clipPath id="clip-path-42">
      <path id="Path_87054" data-name="Path 87054" d="M0,2,1157.914,1159.916C1136.4,996.1,962.384,721.668,700.314,459.6S163.811,23.519,0,2" transform="translate(0 -1.998)" fill="rgba(0,0,0,0)"/>
    </clipPath>
  </defs>
  <g id="Red_Header_Overlay" data-name="Red Header Overlay" clip-path="url(#clip-path)">
    <g id="Group_163971" data-name="Group 163971" transform="translate(-15.619 -535)">
      <g id="Group_163969" data-name="Group 163969" transform="translate(0)" clip-path="url(#clip-path-2)">
        <g id="Group_163873" data-name="Group 163873" transform="translate(398.012 -526.77)" style="mix-blend-mode: color-burn;isolation: isolate">
          <g id="Group_163872" data-name="Group 163872">
            <g id="Group_163871" data-name="Group 163871" clip-path="url(#clip-path-3)">
              <g id="Group_163870" data-name="Group 163870">
                <g id="Group_163869" data-name="Group 163869" clip-path="url(#clip-path-4)">
                  <rect id="Rectangle_148748" data-name="Rectangle 148748" width="1706.818" height="1706.818" transform="translate(-603.452 603.452) rotate(-45)" fill="url(#radial-gradient)"/>
                </g>
              </g>
            </g>
          </g>
        </g>
        <g id="Group_163878" data-name="Group 163878" transform="translate(-140.984 -160.888)" style="mix-blend-mode: color-burn;isolation: isolate">
          <g id="Group_163877" data-name="Group 163877">
            <g id="Group_163876" data-name="Group 163876" clip-path="url(#clip-path-5)">
              <g id="Group_163875" data-name="Group 163875" transform="translate(0 0)">
                <g id="Group_163874" data-name="Group 163874" clip-path="url(#clip-path-6)">
                  <rect id="Rectangle_148750" data-name="Rectangle 148750" width="639.024" height="639.024" transform="translate(-225.929 225.929) rotate(-45)" fill="url(#radial-gradient)"/>
                </g>
              </g>
            </g>
          </g>
        </g>
        <g id="Group_163883" data-name="Group 163883" transform="translate(204.994 -428.183)" style="mix-blend-mode: color-burn;isolation: isolate">
          <g id="Group_163882" data-name="Group 163882" transform="translate(0 0)">
            <g id="Group_163881" data-name="Group 163881" clip-path="url(#clip-path-7)">
              <g id="Group_163880" data-name="Group 163880" transform="translate(0 0)">
                <g id="Group_163879" data-name="Group 163879" clip-path="url(#clip-path-8)">
                  <rect id="Rectangle_148752" data-name="Rectangle 148752" width="1424.487" height="1424.487" transform="translate(-503.633 503.633) rotate(-45)" fill="url(#radial-gradient)"/>
                </g>
              </g>
            </g>
          </g>
        </g>
        <g id="Group_163888" data-name="Group 163888" transform="translate(533.453 -20.569)" style="mix-blend-mode: color-burn;isolation: isolate">
          <g id="Group_163887" data-name="Group 163887">
            <g id="Group_163886" data-name="Group 163886" clip-path="url(#clip-path-9)">
              <g id="Group_163885" data-name="Group 163885" transform="translate(0 0)">
                <g id="Group_163884" data-name="Group 163884" clip-path="url(#clip-path-10)">
                  <rect id="Rectangle_148754" data-name="Rectangle 148754" width="935.48" height="935.48" transform="translate(-330.742 330.742) rotate(-45)" fill="url(#radial-gradient)"/>
                </g>
              </g>
            </g>
          </g>
        </g>
        <g id="Group_163893" data-name="Group 163893" transform="translate(-77.373 -317.374)" style="mix-blend-mode: color-burn;isolation: isolate">
          <g id="Group_163892" data-name="Group 163892">
            <g id="Group_163891" data-name="Group 163891" clip-path="url(#clip-path-11)">
              <g id="Group_163890" data-name="Group 163890" transform="translate(0 0)">
                <g id="Group_163889" data-name="Group 163889" clip-path="url(#clip-path-12)">
                  <rect id="Rectangle_148756" data-name="Rectangle 148756" width="1627.858" height="1627.858" transform="translate(-575.535 575.534) rotate(-45)" fill="url(#radial-gradient)"/>
                </g>
              </g>
            </g>
          </g>
        </g>
        <g id="Group_163898" data-name="Group 163898" transform="translate(911.361 23.179)" style="mix-blend-mode: color-burn;isolation: isolate">
          <g id="Group_163897" data-name="Group 163897">
            <g id="Group_163896" data-name="Group 163896" clip-path="url(#clip-path-13)">
              <g id="Group_163895" data-name="Group 163895" transform="translate(0 0)">
                <g id="Group_163894" data-name="Group 163894" clip-path="url(#clip-path-14)">
                  <rect id="Rectangle_148758" data-name="Rectangle 148758" width="783.813" height="783.813" transform="translate(-277.12 277.12) rotate(-45)" fill="url(#radial-gradient)"/>
                </g>
              </g>
            </g>
          </g>
        </g>
        <g id="Group_163903" data-name="Group 163903" transform="translate(801.938 -444.565)" style="mix-blend-mode: color-burn;isolation: isolate">
          <g id="Group_163902" data-name="Group 163902" transform="translate(0 0)">
            <g id="Group_163901" data-name="Group 163901" clip-path="url(#clip-path-15)">
              <g id="Group_163900" data-name="Group 163900" transform="translate(0 0)">
                <g id="Group_163899" data-name="Group 163899" clip-path="url(#clip-path-16)">
                  <rect id="Rectangle_148760" data-name="Rectangle 148760" width="1492.385" height="1492.385" transform="translate(-527.639 527.639) rotate(-45)" fill="url(#radial-gradient)"/>
                </g>
              </g>
            </g>
          </g>
        </g>
        <g id="Group_163908" data-name="Group 163908" transform="translate(1182.158 -331.544)" style="mix-blend-mode: color-burn;isolation: isolate">
          <g id="Group_163907" data-name="Group 163907">
            <g id="Group_163906" data-name="Group 163906" clip-path="url(#clip-path-17)">
              <g id="Group_163905" data-name="Group 163905" transform="translate(0 0)">
                <g id="Group_163904" data-name="Group 163904" clip-path="url(#clip-path-18)">
                  <rect id="Rectangle_148762" data-name="Rectangle 148762" width="1229.617" height="1229.617" transform="translate(-434.735 434.735) rotate(-45)" fill="url(#radial-gradient)"/>
                </g>
              </g>
            </g>
          </g>
        </g>
        <g id="Group_163913" data-name="Group 163913" transform="translate(6.432 115.806)" style="mix-blend-mode: color-burn;isolation: isolate">
          <g id="Group_163912" data-name="Group 163912">
            <g id="Group_163911" data-name="Group 163911" clip-path="url(#clip-path-19)">
              <g id="Group_163910" data-name="Group 163910" transform="translate(-0.001 0)">
                <g id="Group_163909" data-name="Group 163909" clip-path="url(#clip-path-20)">
                  <rect id="Rectangle_148764" data-name="Rectangle 148764" width="434.958" height="434.958" transform="translate(-153.781 153.781) rotate(-45)" fill="url(#radial-gradient)"/>
                </g>
              </g>
            </g>
          </g>
        </g>
        <g id="Group_163918" data-name="Group 163918" transform="translate(384.628 -5.718)" style="mix-blend-mode: color-burn;isolation: isolate">
          <g id="Group_163917" data-name="Group 163917">
            <g id="Group_163916" data-name="Group 163916" clip-path="url(#clip-path-21)">
              <g id="Group_163915" data-name="Group 163915" transform="translate(0 0)">
                <g id="Group_163914" data-name="Group 163914" clip-path="url(#clip-path-22)">
                  <rect id="Rectangle_148766" data-name="Rectangle 148766" width="1648.763" height="1648.763" transform="translate(-582.926 582.926) rotate(-45)" fill="url(#radial-gradient)"/>
                </g>
              </g>
            </g>
          </g>
        </g>
        <g id="Group_163923" data-name="Group 163923" transform="translate(1524.076 228.435)" style="mix-blend-mode: color-burn;isolation: isolate">
          <g id="Group_163922" data-name="Group 163922">
            <g id="Group_163921" data-name="Group 163921" clip-path="url(#clip-path-23)">
              <g id="Group_163920" data-name="Group 163920" transform="translate(0 0)">
                <g id="Group_163919" data-name="Group 163919" clip-path="url(#clip-path-24)">
                  <rect id="Rectangle_148768" data-name="Rectangle 148768" width="1049.545" height="1049.545" transform="translate(-371.071 371.071) rotate(-45)" fill="url(#radial-gradient)"/>
                </g>
              </g>
            </g>
          </g>
        </g>
        <g id="Group_163928" data-name="Group 163928" transform="translate(1283.523 -228.173)" style="mix-blend-mode: color-burn;isolation: isolate">
          <g id="Group_163927" data-name="Group 163927">
            <g id="Group_163926" data-name="Group 163926" clip-path="url(#clip-path-25)">
              <g id="Group_163925" data-name="Group 163925" transform="translate(0 0)">
                <g id="Group_163924" data-name="Group 163924" clip-path="url(#clip-path-26)">
                  <rect id="Rectangle_148770" data-name="Rectangle 148770" width="1617.766" height="1617.766" transform="translate(-571.966 571.966) rotate(-45)" fill="url(#radial-gradient)"/>
                </g>
              </g>
            </g>
          </g>
        </g>
        <g id="Group_163933" data-name="Group 163933" transform="translate(989.52 -184.452)" style="mix-blend-mode: color-burn;isolation: isolate">
          <g id="Group_163932" data-name="Group 163932">
            <g id="Group_163931" data-name="Group 163931" clip-path="url(#clip-path-27)">
              <g id="Group_163930" data-name="Group 163930" transform="translate(0 0)">
                <g id="Group_163929" data-name="Group 163929" clip-path="url(#clip-path-28)">
                  <rect id="Rectangle_148772" data-name="Rectangle 148772" width="1541.469" height="1541.469" transform="translate(-544.991 544.991) rotate(-45)" fill="url(#radial-gradient)"/>
                </g>
              </g>
            </g>
          </g>
        </g>
        <g id="Group_163938" data-name="Group 163938" transform="translate(704.161 -23.871)" style="mix-blend-mode: color-burn;isolation: isolate">
          <g id="Group_163937" data-name="Group 163937" transform="translate(0)">
            <g id="Group_163936" data-name="Group 163936" clip-path="url(#clip-path-29)">
              <g id="Group_163935" data-name="Group 163935" transform="translate(0 0)">
                <g id="Group_163934" data-name="Group 163934" clip-path="url(#clip-path-30)">
                  <rect id="Rectangle_148774" data-name="Rectangle 148774" width="1705.548" height="1705.548" transform="translate(-603.002 603.002) rotate(-45)" fill="url(#radial-gradient)"/>
                </g>
              </g>
            </g>
          </g>
        </g>
        <g id="Group_163943" data-name="Group 163943" transform="translate(340.805 403.378)" style="mix-blend-mode: color-burn;isolation: isolate">
          <g id="Group_163942" data-name="Group 163942">
            <g id="Group_163941" data-name="Group 163941" clip-path="url(#clip-path-31)">
              <g id="Group_163940" data-name="Group 163940" transform="translate(0 0)">
                <g id="Group_163939" data-name="Group 163939" clip-path="url(#clip-path-32)">
                  <rect id="Rectangle_148776" data-name="Rectangle 148776" width="662.888" height="662.888" transform="translate(-234.366 234.366) rotate(-45)" fill="url(#radial-gradient)"/>
                </g>
              </g>
            </g>
          </g>
        </g>
        <g id="Group_163948" data-name="Group 163948" transform="translate(1480.683 432.516)" style="mix-blend-mode: color-burn;isolation: isolate">
          <g id="Group_163947" data-name="Group 163947">
            <g id="Group_163946" data-name="Group 163946" clip-path="url(#clip-path-33)">
              <g id="Group_163945" data-name="Group 163945" transform="translate(0 0)">
                <g id="Group_163944" data-name="Group 163944" clip-path="url(#clip-path-34)">
                  <rect id="Rectangle_148778" data-name="Rectangle 148778" width="468.605" height="468.605" transform="translate(-165.677 165.677) rotate(-45)" fill="url(#radial-gradient)"/>
                </g>
              </g>
            </g>
          </g>
        </g>
        <g id="Group_163953" data-name="Group 163953" transform="translate(14.943 383.181)" style="mix-blend-mode: color-burn;isolation: isolate">
          <g id="Group_163952" data-name="Group 163952">
            <g id="Group_163951" data-name="Group 163951" clip-path="url(#clip-path-35)">
              <g id="Group_163950" data-name="Group 163950" transform="translate(0.002)">
                <g id="Group_163949" data-name="Group 163949" clip-path="url(#clip-path-36)">
                  <rect id="Rectangle_148780" data-name="Rectangle 148780" width="481.471" height="481.471" transform="translate(-170.227 170.227) rotate(-45)" fill="url(#radial-gradient)"/>
                </g>
              </g>
            </g>
          </g>
        </g>
        <g id="Group_163958" data-name="Group 163958" transform="translate(1483.674 -304.298)" style="mix-blend-mode: color-burn;isolation: isolate">
          <g id="Group_163957" data-name="Group 163957" transform="translate(0 0)">
            <g id="Group_163956" data-name="Group 163956" clip-path="url(#clip-path-37)">
              <g id="Group_163955" data-name="Group 163955" transform="translate(0 0)">
                <g id="Group_163954" data-name="Group 163954" clip-path="url(#clip-path-38)">
                  <rect id="Rectangle_148782" data-name="Rectangle 148782" width="1105.538" height="1105.538" transform="translate(-390.867 390.867) rotate(-45)" fill="url(#radial-gradient)"/>
                </g>
              </g>
            </g>
          </g>
        </g>
        <g id="Group_163963" data-name="Group 163963" transform="translate(413.056 248.894)" style="mix-blend-mode: color-burn;isolation: isolate">
          <g id="Group_163962" data-name="Group 163962">
            <g id="Group_163961" data-name="Group 163961" clip-path="url(#clip-path-39)">
              <g id="Group_163960" data-name="Group 163960" transform="translate(0 0)">
                <g id="Group_163959" data-name="Group 163959" clip-path="url(#clip-path-40)">
                  <rect id="Rectangle_148784" data-name="Rectangle 148784" width="574.789" height="574.788" transform="translate(-203.219 203.219) rotate(-45)" fill="url(#radial-gradient)"/>
                </g>
              </g>
            </g>
          </g>
        </g>
        <g id="Group_163968" data-name="Group 163968" transform="translate(-193.793 -519.884)" style="mix-blend-mode: color-burn;isolation: isolate">
          <g id="Group_163967" data-name="Group 163967" transform="translate(0 0)">
            <g id="Group_163966" data-name="Group 163966" clip-path="url(#clip-path-41)">
              <g id="Group_163965" data-name="Group 163965" transform="translate(0 0)">
                <g id="Group_163964" data-name="Group 163964" clip-path="url(#clip-path-42)">
                  <rect id="Rectangle_148786" data-name="Rectangle 148786" width="1637.541" height="1637.541" transform="translate(-578.959 578.959) rotate(-45)" fill="url(#radial-gradient)"/>
                </g>
              </g>
            </g>
          </g>
        </g>
      </g>
    </g>
  </g>
</svg>
